﻿Field=#~Integer~#~50|Field=Designator~String~Designator~166|Field=Part number~String~Part number~328|Field=Quantity~Integer~Quantity~81|Field=LT_ID~String~LT_ID~166|Field=Comment~String~Comment~148|Field=Description~String~Description~139|ReportField=Currency~<none>|ReportField=ProductionQuantity~1|ReportField=ProjectFileName~B1x33W_0.25A_IK_DALI.PrjPCB|ReportField=ProjectFullPath~D:\B1x33W_DALI_IK PCBA\PCB\B1x33W_0.25A_IK_DALI.PrjPCB|ReportField=Title~Bill of Materials For Project [B1x33W_0.25A_IK_DALI.PrjPCB] (No PCB Document Selected)|ReportField=TotalQuantity~188|ReportField=ReportTime~17:17:21|ReportField=ReportDate~04.06.2018|ReportField=ReportDateTime~04.06.2018 17:17:21|ReportField=OutputName~Bill of Materials|ReportField=OutputType~BOM_PartType|ReportField=GeneratorName~BOM|ReportField=GeneratorDescription~Bill of Materials|ReportField=VariantName~None|ReportField=Address1~|ReportField=Address2~|ReportField=Address3~|ReportField=Address4~|ReportField=Application_BuildNumber~|ReportField=ApprovedBy~|ReportField=Author~P.T|ReportField=CheckedBy~|ReportField=CompanyName~|ReportField=CurrentDate~04.06.2018|ReportField=CurrentTime~17:12:34|ReportField=Date~|ReportField=DocumentFullPathAndName~D:\B1x33W_DALI_IK PCBA\PCB\B1x33W_DESCRIPTOR_DALI.SchDoc|ReportField=DocumentName~B1x33W_DESCRIPTOR_DALI.SchDoc|ReportField=DocumentNumber~|ReportField=DrawnBy~|ReportField=Engineer~DEUS|ReportField=ImagePath~|ReportField=ModifiedDate~31.05.2018|ReportField=Organization~|ReportField=PageSetup~Record=PageOptions:CenterHorizontal=True:CenterVertical=True:PrintScale=1.00:XCorrection=1.00:YCorrection=1.00:PrintKind=1:BorderSize=5000000:LeftOffset=0:BottomOffset=0:Orientation=2:PaperLength=1000:PaperWidth=1000:Scale=100:PaperSource=7:PrintQuality=-3:MediaType=1:DitherType=10:PrintScaleMode=1:PaperKind=A4:PaperIndex=9|ReportField=ProjectName~B1x33W_0.25A_IK_DALI.PrjPCB|ReportField=Revision~1|ReportField=Rule~|ReportField=SheetNumber~6|ReportField=SheetTotal~6|ReportField=Time~|ReportField=Title~B1x33W_DESCRIPTOR_DALI|ReportField=Version_number_of_the_thing~kadjhasdjklvn|ReportField=DataSourceFileName~B1x33W_0.25A_IK_DALI.PrjPCB|ReportField=DataSourceFullPath~D:\B1x33W_DALI_IK PCBA\PCB\B1x33W_0.25A_IK_DALI.PrjPCB
1|C1|Конденсатор керамический 2200пФ-250В-Y2 MURATA DE2E3KY222MA2|1|5630001750|2.2nF|Capacitor non-polar
2|C2|Конденсатор пленочный 0,22мкФ-305В-X2 EPCOS B32922C3224K|1|5630001580|0.22uF|Capacitor non-polar
3|C3, C9|Конденсатор пленочный 0,1мкФ-305В-X2 EPCOS B32922C3104K|2|5630001590|0,1uF|Capacitor non-polar
4|C4, C10, C27|Конденсатор керамический 0,01мкФ-50В-X7R-0603 YAGEO CC0603KRX7R9BB103|3|5630003420|10nF|Capacitor non-polar
5|C5, C6|Конденсатор электролитический 22 мкФ-25В-0511 HITANO EXR220M25B|2|5630001790|22uF|Capacitor polar
6|C7, C11, C20, C24|Конденсатор керамический 0,22мкФ-25В-Y5V-0603 YAGEO CC0603ZRY5V8BB224|4|5630001550|220nF|Capacitor non-polar
7|C8|Конденсатор керамический 4,7мкФ-16В-X7R-0805 KEMET C0805C475M4RAC|1|6011000570|4.7uF|Capacitor non-polar
8|C12, C19, C23, C25|Конденсатор керамический 1мкФ-16В-X7R-0603 YAGEO CC0603KRX7R7BB105|4|5630001560|1uF|Capacitor non-polar
9|C13, C18, C22, C28, FID1, FID2, FID3, FP1, FP2, FP3, R6, R7, R35, R50, TP1, TP2, TP3, TP4, TP5, TP6, TP7, TP8, TP9, TP10, TP11, TP12, TP13, TP14, TP15, TP16, TP17, TP18, TP19, TP20, TP21, TP22, TP23, TP24, TP25, TP26, TP27, TP28, TP29, TP30, TP31, TP32, TP33, TP34, TP35, TP36, TP37, TP38, TP39, TP40, TP41, TP42, TP43, TP44, TP45, TP46, TP47, TP48, TP49, TP50, TP51, TP52, TP53, TP54, TP55, TP56, TP57, TP58, TP59, TP60, TP61, TP62, TP63||77||DUMMY, DUMMY, DUMMY, DUMMY, Fiducial, Fiducial, Fiducial, 0.6A, 1A, 1A, DUMMY, DUMMY, DUMMY, DUMMY, Test point, Test point, Test point, Test point, Test point, Test point, Test point, Test point, Test point, Test point, Test point, Test point, Test point, Test point, Test point, Test point, Test point, Test point, Test point, Test point, Test point, Test point, Test point, Test point, Test point, Test point, Test point, Test point, Test point, Test point, Test point, Test point, Test point, Test point, Test point, Test point, Test point, Test point, Test point, Test point, Test point, Test point, Test point, Test point, Test point, Test point, Test point, Test point, Test point, Test point, Test point, Test point, Test point, Test point, Test point, Test point, Test point, Test point, Test point, Test point, Test point, Test point, Test point|Capacitor non-polar, Capacitor non-polar, Capacitor non-polar, Capacitor non-polar, Fiducial mark, Fiducial mark, Fiducial mark, PCB fusible pattern, PCB fusible pattern, PCB fusible pattern, Resistor, Resistor, Resistor, Resistor, Test point, Test point, Test point, Test point, Test point, Test point, Test point, Test point, Test point, Test point, Test point, Test point, Test point, Test point, Test point, Test point, Test point, Test point, Test point, Test point, Test point, Test point, Test point, Test point, Test point, Test point, Test point, Test point, Test point, Test point, Test point, Test point, Test point, Test point, Test point, Test point, Test point, Test point, Test point, Test point, Test point, Test point, Test point, Test point, Test point, Test point, Test point, Test point, Test point, Test point, Test point, Test point, Test point, Test point, Test point, Test point, Test point, Test point, Test point, Test point, Test point, Test point, Test point
10|C14, C21, C26|Конденсатор керамический 470пФ-50В-NPO-0603 YAGEO CC0603JRNPO9BN471|3|5630003000|470pF|Capacitor non-polar
11|C15, C29|Конденсатор керамический 2200пФ-1000В-X7R-1206 MURATA GRM31BR73A222KW01L|2|5630003400|2200pF|Capacitor non-polar
12|C16, C30|Конденсатор керамический 100пФ-630В-NPO-1206 YAGEO CC1206JKNPOZBN101|2|5630004090|630V|Capacitor non-polar
13|C17|Конденсатор электролитический 22мкФ-450В-1620 NICHICON UCS2W220MHD|1|5630004260|22uF|Capacitor polar
14|C31|Конденсатор пленочный 0,47мкФ-305В-X2 EPCOS B32922C3474K|1|5630002960|0.47uF|Capacitor non-polar
15|DD1|Микросхема ST VIPER12ASTR-E SOIC8|1|5630002290|VIPer12/22|OFF-line SMPS primary switcher
16|DD2, DD3|Микросхема ST L6562ADTR SOIC8|2|5630001500|L6562A|SMPS PFC controller
17|L1|Дроссель ЭМП 68мГн-0,6А FERRIWO FWFCC1614-680L060C|1|6001001300|68mH|Common mode filter
18|L2|Дроссель 2,2мГн-0,18А-0807 SUMIDA RCH875NP-222K|1|5630003900|2.2mH|Inductor
19|L3, L6|Дроссель ЭМП 4,7мкГн-1А-2520 CHILISIN MPB252012T-4R7M-NA2|2|5630004350|4.7uH (replace L4), 4.7uH (replace L5)|Inductor
20|L4, L5|Дроссель ЭМП 4,7мкГн-1,5А FERRIWO FWDRI0406B-4R7M|2|5630001860|4.7uH|Inductor
21|R1, R14, R25, R33, R44|Резистор 33кОм-0,1Вт-5%-0603 YAGEO RC0603JR-0733KL|5|5630002720|33K|Resistor
22|R2, R3, R12, R13|Резистор 1,5MОм-0,25Вт-5%-1206 YAGEO RC1206JR-071M5L|4|5630001570|1.5M|Resistor
23|R4, R21, R36, R39|Резистор 47кОм-0,1Вт-5%-0603 YAGEO RC0603JR-0747KL|4|5630002510|47K|Resistor
24|R5, R9, R10, R11, R29|Резистор 22кОм-0,1Вт-5%-0603 YAGEO RC0603JR-0722KL|5|5630001600|22k|Resistor
25|R8|Резистор 22Ом-0,125 Вт-5%-0805 YAGEO RC0805JR-0722RL|1|5630001660|22R|Resistor
26|R15, R16, R17|Резистор 680 кОм - 0,25 Вт - ±5% - 1206 YAGEO RC1206JR-07680KL|3|5630001620|680K|Resistor
27|R18|Резистор 13кОм-0,1Вт-5%-0603 YAGEO RC0603JR-0713KL|1|5630001630|13k|Resistor
28|R19, R20, R24, R40, R42|Резистор 910Ом-0,1Вт-5%-0603 YAGEO RC0603JR-07910RL|5|5630001670|910R|Resistor
29|R22, R28, R31, R38|Резистор 1,5кОм-0,1Вт-5%- 0603 YAGEO RC0603JR-071K5L|4|5630001850|1.5K|Resistor
30|R23, R26, R43|Резистор 3Ом-0,25Вт-5%-1206 YAGEO RC1206JR-073RL|3|5630001530|3R|Resistor
31|R27, R46|Резистор 10Ом-0,25Вт-5%-1206 YAGEO RC1206JR-0710RL|2|5630004080|10R|Resistor
32|R30, R34|Резистор 4,7кОм-0,1Вт-5%-0603 YAGEO RC0603JR-074K7L|2|5630002490|4.7K|Resistor
33|R32, R37|Резистор 220кОм-0,1Вт-5%-0603 YAGEO RC0603JR-07220KL|2|5630001690|220K|Resistor
34|R41|Резистор 4,3 Ом-0,125Вт-5%- 0805 YAGEO RC0805JR-074R3L|1|5630002230|DUMMY|Resistor
35|R45|Резистор 2,2Ом-0,25Вт-5%-1206 YAGEO RC1206JR-072R2L|1|5630001640|2.2R|Resistor
36|R49|Резистор 510Ом-0,125Вт-5%-0805 YAGEO RC0805JR-07510RL|1|5630001100|510R|Resistor
37|RU1, RU2|Варистор 470В-10мм EPCOS B72210S0301K101|2|5630001730|470V|Metal Oxide Varistor
38|T1, T2|Дроссель ККМ B1x50W-T1-1|2|6001001310|1.4mH|Inductor spec
39|U1|Интерфейс DALI B1 2.0F PCBA п/ф раздел.|1|7980074844|B1 DALI 2.0|Communication interface with MCU
40|VD1, VD2, VD3, VD4, VD5|Диод 1000В-1А-SMA DIOTEC S1M|5|5630001820|S1M|Diode
41|VD6, VD8|Диод быстродействующий 600В-1A-SMA DIOTEC US1M|2|5630002300|US1M|Diode
42|VD7|Стабилитрон 16В-500мВт-SOD80 DIOTEC ZMM16|1|5630001830|ZMM16|Zener Diode properties
43|VD9|Стабилитрон 18В-500мВт-SOD80 DIOTEC ZMM18|1|5630002320|ZMM18|Zener Diode properties
44|VD10|Стабилитрон 5,6В-500мВт-SOD80 DIOTEC ZMM5.6|1|5630002460|ZMM5.6|Zener Diode properties
45|VD11, VD13, VD14, VD15, VD16|Диод быстродействующий 75В-200мА-SOD80 DIOTEC LL4148|5|5630001800|LL4148|Diode
46|VD12, VD17|Диод быстродействующий 600В-1А-DO41 DIOTEC MUR160|2|5630001810|MUR160|Diode
47|VT1, VT2|Транзистор биполярный NPN-160В-0,6А-SOT23 DIOTEC MMBT5551|2|5630003990|MMBT5551|NPN transistor
48|VT3|Транзистор биполярный PNP-30В-100мА-SOT23 NXP BC858B|1|5630002340|BC858B|PNP transistor
49|VT4, VT5|Транзистор полевой N-525В-7А-DPAK ROHM R5207ANDTL|2|5630001520||MOSFET N-channel
50|XT1, XT3, XT4|Разъем быстрозажимной 2пол TIANLI TLM002D-02P-M|3|6013001570|TLM-002D-02P-M|Terminal block, 2 poles, screw/spring
51|XT2|Разъем быстрозажимной 3пол TIANLI TLM002D-03P-M|1|6013001580|TLM-002D-03P-M|Terminal block, 3 poles, screw/spring
